airportName,airportID,nHops,timeToStartWork
Frankfurt,340,2,0.029999995604157448
Frankfurt,340,2,0.02500019036233425
Frankfurt,340,2,0.0350000336766243
Frankfurt,340,2,0.024999957531690598
Frankfurt,340,2,0.02500019036233425
Frankfurt,340,2,0.019999919459223747
Frankfurt,340,2,0.019999919459223747
Frankfurt,340,2,0.024999957531690598
Frankfurt,340,2,0.029999995604157448
Frankfurt,340,2,0.029999995604157448
Frankfurt,340,2,0.054999953135848045
Frankfurt,340,2,0.059999991208314896
Frankfurt,340,2,0.019999919459223747
Frankfurt,340,2,0.029999995604157448
Frankfurt,340,2,0.02500019036233425
Frankfurt,340,2,0.014999881386756897
Frankfurt,340,2,0.01500011421740055
Frankfurt,340,2,0.019999919459223747
Frankfurt,340,2,0.014999881386756897
Frankfurt,340,2,0.01500011421740055
Frankfurt,340,2,0.014999881386756897
Frankfurt,340,2,0.0100000761449337
Frankfurt,340,2,0.009999843314290047
Frankfurt,340,2,0.019999919459223747
Frankfurt,340,2,0.0100000761449337
Frankfurt,340,2,0.014999881386756897
Frankfurt,340,2,0.01500011421740055
Frankfurt,340,2,0.014999881386756897
Frankfurt,340,2,1.2950000818818808
Frankfurt,340,2,0.049999915063381195
Frankfurt,340,2,0.01500011421740055
Frankfurt,340,2,0.034999800845980644
Frankfurt,340,2,0.0200001522898674
Frankfurt,340,2,0.014999881386756897
Frankfurt,340,2,0.01500011421740055
Frankfurt,340,2,0.019999919459223747
Frankfurt,340,2,0.0100000761449337
Frankfurt,340,2,0.014999881386756897
Frankfurt,340,2,0.01500011421740055
Frankfurt,340,2,0.019999919459223747
Frankfurt,340,2,0.014999881386756897
Frankfurt,340,2,0.01500011421740055
Frankfurt,340,2,0.019999919459223747
Frankfurt,340,2,0.029999995604157448
Frankfurt,340,2,0.024999957531690598
Frankfurt,340,2,0.0100000761449337
Frankfurt,340,2,0.014999881386756897
Frankfurt,340,2,0.0200001522898674
Frankfurt,340,2,0.009999843314290047
Frankfurt,340,2,0.01500011421740055
Frankfurt,340,2,0.01500011421740055
Frankfurt,340,2,0.014999881386756897
Frankfurt,340,2,0.0200001522898674
Frankfurt,340,2,0.009999843314290047
Frankfurt,340,2,0.0200001522898674
Frankfurt,340,2,0.014999881386756897
Frankfurt,340,2,0.01500011421740055
Frankfurt,340,2,0.019999919459223747
Frankfurt,340,2,0.01500011421740055
Frankfurt,340,2,0.014999881386756897
Frankfurt,340,2,0.01500011421740055
Frankfurt,340,2,0.019999919459223747
Frankfurt,340,2,0.01500011421740055
Frankfurt,340,2,0.014999881386756897
Frankfurt,340,2,0.01500011421740055
Frankfurt,340,2,0.0100000761449337
Frankfurt,340,2,0.014999881386756897
Frankfurt,340,2,0.01500011421740055
Frankfurt,340,2,0.019999919459223747
Frankfurt,340,2,0.01500011421740055
Frankfurt,340,2,0.014999881386756897
Frankfurt,340,2,0.0100000761449337
Frankfurt,340,2,0.014999881386756897
Frankfurt,340,2,0.01500011421740055
Frankfurt,340,2,0.01500011421740055
Frankfurt,340,2,0.01500011421740055
Frankfurt,340,2,0.014999881386756897
Frankfurt,340,2,0.01500011421740055
Frankfurt,340,2,0.019999919459223747
Frankfurt,340,2,0.014999881386756897
Frankfurt,340,2,0.0100000761449337
Frankfurt,340,2,0.014999881386756897
Frankfurt,340,2,0.01500011421740055
Frankfurt,340,2,0.014999881386756897
Frankfurt,340,2,0.029999995604157448
Frankfurt,340,2,0.0350000336766243
Frankfurt,340,2,0.024999957531690598
Frankfurt,340,2,0.019999919459223747
Frankfurt,340,2,0.0200001522898674
Frankfurt,340,2,0.0100000761449337
Frankfurt,340,2,0.014999881386756897
Frankfurt,340,2,0.01500011421740055
Frankfurt,340,2,0.014999881386756897
Frankfurt,340,2,0.01500011421740055
Frankfurt,340,2,0.014999881386756897
Frankfurt,340,2,0.0100000761449337
Frankfurt,340,2,0.009999843314290047
Frankfurt,340,2,0.01500011421740055
Frankfurt,340,2,0.01500011421740055
Frankfurt,340,2,0.014999881386756897
