airportName,airportID,nHops,timeToStartWork
JFK,3797,2,0.0350000336766243
JFK,3797,2,0.04000007174909115
JFK,3797,2,0.034999800845980644
JFK,3797,2,0.029999995604157448
JFK,3797,2,0.10000006295740604
JFK,3797,2,0.044999876990914345
JFK,3797,2,0.045000109821558
JFK,3797,2,0.0200001522898674
JFK,3797,2,0.024999957531690598
JFK,3797,2,0.019999919459223747
JFK,3797,2,0.029999995604157448
JFK,3797,2,0.014999881386756897
JFK,3797,2,0.0350000336766243
JFK,3797,2,0.029999995604157448
JFK,3797,2,0.0100000761449337
JFK,3797,2,0.0100000761449337
JFK,3797,2,0.014999881386756897
JFK,3797,2,0.01500011421740055
JFK,3797,2,0.019999919459223747
JFK,3797,2,0.01500011421740055
JFK,3797,2,0.009999843314290047
JFK,3797,2,0.0200001522898674
JFK,3797,2,0.014999881386756897
JFK,3797,2,0.019999919459223747
JFK,3797,2,0.01500011421740055
JFK,3797,2,0.019999919459223747
JFK,3797,2,0.01500011421740055
JFK,3797,2,0.014999881386756897
JFK,3797,2,0.029999995604157448
JFK,3797,2,0.05000014789402485
JFK,3797,2,0.014999881386756897
JFK,3797,2,0.019999919459223747
JFK,3797,2,0.0100000761449337
JFK,3797,2,0.01500011421740055
JFK,3797,2,0.024999957531690598
JFK,3797,2,0.014999881386756897
JFK,3797,2,0.01500011421740055
JFK,3797,2,0.014999881386756897
JFK,3797,2,0.0350000336766243
JFK,3797,2,0.029999995604157448
JFK,3797,2,0.014999881386756897
JFK,3797,2,0.01500011421740055
JFK,3797,2,0.029999995604157448
JFK,3797,2,0.024999957531690598
JFK,3797,2,0.019999919459223747
JFK,3797,2,0.0100000761449337
JFK,3797,2,0.009999843314290047
JFK,3797,2,0.019999919459223747
JFK,3797,2,0.0100000761449337
JFK,3797,2,0.019999919459223747
JFK,3797,2,0.01500011421740055
JFK,3797,2,0.049999915063381195
JFK,3797,2,0.044999876990914345
JFK,3797,2,0.029999995604157448
JFK,3797,2,0.0350000336766243
JFK,3797,2,0.049999915063381195
JFK,3797,2,0.049999915063381195
JFK,3797,2,0.029999995604157448
JFK,3797,2,0.0550001859664917
JFK,3797,2,0.054999953135848045
JFK,3797,2,0.029999995604157448
JFK,3797,2,0.029999995604157448
JFK,3797,2,0.049999915063381195
JFK,3797,2,0.059999991208314896
JFK,3797,2,0.045000109821558
JFK,3797,2,0.054999953135848045
JFK,3797,2,0.024999957531690598
JFK,3797,2,0.044999876990914345
JFK,3797,2,0.054999953135848045
JFK,3797,2,0.05000014789402485
JFK,3797,2,0.044999876990914345
JFK,3797,2,0.044999876990914345
JFK,3797,2,0.044999876990914345
JFK,3797,2,0.059999991208314896
JFK,3797,2,0.029999995604157448
JFK,3797,2,0.029999995604157448
JFK,3797,2,0.0350000336766243
JFK,3797,2,0.029999995604157448
JFK,3797,2,0.029999995604157448
JFK,3797,2,0.039999838918447495
JFK,3797,2,0.024999957531690598
JFK,3797,2,0.029999995604157448
JFK,3797,2,0.029999995604157448
JFK,3797,2,0.024999957531690598
JFK,3797,2,0.044999876990914345
JFK,3797,2,0.029999995604157448
JFK,3797,2,0.054999953135848045
JFK,3797,2,0.2649999223649502
JFK,3797,2,0.05000014789402485
JFK,3797,2,0.04000007174909115
JFK,3797,2,0.029999995604157448
JFK,3797,2,0.039999838918447495
JFK,3797,2,0.0350000336766243
JFK,3797,2,0.0350000336766243
JFK,3797,2,0.0350000336766243
JFK,3797,2,0.0300002284348011
JFK,3797,2,0.0350000336766243
JFK,3797,2,0.0350000336766243
JFK,3797,2,0.0350000336766243
JFK,3797,2,0.0350000336766243
