airportName,airportID,nHops,timeToStartWork
JFK,3797,3,0.029999995604157448
JFK,3797,3,0.049999915063381195
JFK,3797,3,0.0350000336766243
JFK,3797,3,0.029999995604157448
JFK,3797,3,0.0350000336766243
JFK,3797,3,0.0350000336766243
JFK,3797,3,0.029999995604157448
JFK,3797,3,0.09999983012676239
JFK,3797,3,0.049999915063381195
JFK,3797,3,0.0350000336766243
JFK,3797,3,0.11999998241662979
JFK,3797,3,0.039999838918447495
JFK,3797,3,0.0800001434981823
JFK,3797,3,0.059999991208314896
JFK,3797,3,0.0350000336766243
JFK,3797,3,0.019999919459223747
JFK,3797,3,0.014999881386756897
JFK,3797,3,0.01500011421740055
JFK,3797,3,0.014999881386756897
JFK,3797,3,0.01500011421740055
JFK,3797,3,0.01500011421740055
JFK,3797,3,0.009999843314290047
JFK,3797,3,0.0100000761449337
JFK,3797,3,0.014999881386756897
JFK,3797,3,0.01500011421740055
JFK,3797,3,0.019999919459223747
JFK,3797,3,0.01500011421740055
JFK,3797,3,0.014999881386756897
JFK,3797,3,0.01500011421740055
JFK,3797,3,0.014999881386756897
JFK,3797,3,0.0100000761449337
JFK,3797,3,0.019999919459223747
JFK,3797,3,0.014999881386756897
JFK,3797,3,0.01500011421740055
JFK,3797,3,0.014999881386756897
JFK,3797,3,0.0200001522898674
JFK,3797,3,0.014999881386756897
JFK,3797,3,0.01500011421740055
JFK,3797,3,0.014999881386756897
JFK,3797,3,0.01500011421740055
JFK,3797,3,0.014999881386756897
JFK,3797,3,0.0100000761449337
JFK,3797,3,0.019999919459223747
JFK,3797,3,0.019999919459223747
JFK,3797,3,0.024999957531690598
JFK,3797,3,0.019999919459223747
JFK,3797,3,0.024999957531690598
JFK,3797,3,0.02500019036233425
JFK,3797,3,0.02500019036233425
JFK,3797,3,0.024999957531690598
JFK,3797,3,0.019999919459223747
JFK,3797,3,0.019999919459223747
JFK,3797,3,0.024999957531690598
JFK,3797,3,0.024999957531690598
JFK,3797,3,0.0200001522898674
JFK,3797,3,0.0200001522898674
JFK,3797,3,0.024999957531690598
JFK,3797,3,0.024999957531690598
JFK,3797,3,0.019999919459223747
JFK,3797,3,0.024999957531690598
JFK,3797,3,0.019999919459223747
JFK,3797,3,0.029999995604157448
JFK,3797,3,0.0200001522898674
JFK,3797,3,0.014999881386756897
JFK,3797,3,0.01500011421740055
JFK,3797,3,0.019999919459223747
JFK,3797,3,0.014999881386756897
JFK,3797,3,0.01500011421740055
JFK,3797,3,0.014999881386756897
JFK,3797,3,0.01500011421740055
JFK,3797,3,0.009999843314290047
JFK,3797,3,0.01500011421740055
JFK,3797,3,0.009999843314290047
JFK,3797,3,0.0200001522898674
JFK,3797,3,0.014999881386756897
JFK,3797,3,0.0200001522898674
JFK,3797,3,0.009999843314290047
JFK,3797,3,0.01500011421740055
JFK,3797,3,0.014999881386756897
JFK,3797,3,0.01500011421740055
JFK,3797,3,0.01500011421740055
JFK,3797,3,0.009999843314290047
JFK,3797,3,0.01500011421740055
JFK,3797,3,0.014999881386756897
JFK,3797,3,0.01500011421740055
JFK,3797,3,0.009999843314290047
JFK,3797,3,0.0200001522898674
JFK,3797,3,0.014999881386756897
JFK,3797,3,0.01500011421740055
JFK,3797,3,0.01500011421740055
JFK,3797,3,0.014999881386756897
JFK,3797,3,0.01500011421740055
JFK,3797,3,0.01500011421740055
JFK,3797,3,0.024999957531690598
JFK,3797,3,0.009999843314290047
JFK,3797,3,0.0200001522898674
JFK,3797,3,0.014999881386756897
JFK,3797,3,0.01500011421740055
JFK,3797,3,0.014999881386756897
JFK,3797,3,0.01500011421740055
