airportName,airportID,nHops,timeToStartWork
Pullman,3944,3,0.024999957531690598
Pullman,3944,3,0.019999919459223747
Pullman,3944,3,0.024999957531690598
Pullman,3944,3,0.029999995604157448
Pullman,3944,3,0.024999957531690598
Pullman,3944,3,0.029999995604157448
Pullman,3944,3,0.0200001522898674
Pullman,3944,3,0.0100000761449337
Pullman,3944,3,0.019999919459223747
Pullman,3944,3,0.01500011421740055
Pullman,3944,3,0.024999957531690598
Pullman,3944,3,0.019999919459223747
Pullman,3944,3,0.07500010542571545
Pullman,3944,3,0.04000007174909115
Pullman,3944,3,0.0350000336766243
Pullman,3944,3,0.024999957531690598
Pullman,3944,3,0.029999995604157448
Pullman,3944,3,0.0350000336766243
Pullman,3944,3,0.039999838918447495
Pullman,3944,3,0.029999995604157448
Pullman,3944,3,0.024999957531690598
Pullman,3944,3,0.01500011421740055
Pullman,3944,3,0.04000007174909115
Pullman,3944,3,0.054999953135848045
Pullman,3944,3,0.054999953135848045
Pullman,3944,3,0.054999953135848045
Pullman,3944,3,0.059999991208314896
Pullman,3944,3,0.045000109821558
Pullman,3944,3,0.034999800845980644
Pullman,3944,3,0.0200001522898674
Pullman,3944,3,0.039999838918447495
Pullman,3944,3,0.04000007174909115
Pullman,3944,3,0.049999915063381195
Pullman,3944,3,0.04000007174909115
Pullman,3944,3,0.054999953135848045
Pullman,3944,3,0.054999953135848045
Pullman,3944,3,0.0350000336766243
Pullman,3944,3,0.06500002928078175
Pullman,3944,3,0.039999838918447495
Pullman,3944,3,0.054999953135848045
Pullman,3944,3,0.049999915063381195
Pullman,3944,3,0.059999991208314896
Pullman,3944,3,0.0550001859664917
Pullman,3944,3,0.059999991208314896
Pullman,3944,3,0.02500019036233425
Pullman,3944,3,0.019999919459223747
Pullman,3944,3,0.054999953135848045
Pullman,3944,3,0.024999957531690598
Pullman,3944,3,0.0550001859664917
Pullman,3944,3,0.059999991208314896
Pullman,3944,3,0.0550001859664917
Pullman,3944,3,0.054999953135848045
Pullman,3944,3,0.034999800845980644
Pullman,3944,3,0.04000007174909115
Pullman,3944,3,0.014999881386756897
Pullman,3944,3,0.0550001859664917
Pullman,3944,3,0.019999919459223747
Pullman,3944,3,0.019999919459223747
Pullman,3944,3,0.0200001522898674
Pullman,3944,3,0.0350000336766243
Pullman,3944,3,0.045000109821558
Pullman,3944,3,0.049999915063381195
Pullman,3944,3,0.0350000336766243
Pullman,3944,3,0.049999915063381195
Pullman,3944,3,0.054999953135848045
Pullman,3944,3,0.049999915063381195
Pullman,3944,3,0.059999991208314896
Pullman,3944,3,0.05000014789402485
Pullman,3944,3,0.0100000761449337
Pullman,3944,3,0.04000007174909115
Pullman,3944,3,0.049999915063381195
Pullman,3944,3,0.049999915063381195
Pullman,3944,3,0.019999919459223747
Pullman,3944,3,0.0350000336766243
Pullman,3944,3,0.04000007174909115
Pullman,3944,3,0.0350000336766243
Pullman,3944,3,0.019999919459223747
Pullman,3944,3,0.019999919459223747
Pullman,3944,3,0.0200001522898674
Pullman,3944,3,0.0350000336766243
Pullman,3944,3,0.044999876990914345
Pullman,3944,3,0.0350000336766243
Pullman,3944,3,0.0350000336766243
Pullman,3944,3,0.019999919459223747
Pullman,3944,3,0.04000007174909115
Pullman,3944,3,0.019999919459223747
Pullman,3944,3,0.0350000336766243
Pullman,3944,3,0.054999953135848045
Pullman,3944,3,0.019999919459223747
Pullman,3944,3,0.04000007174909115
Pullman,3944,3,0.019999919459223747
Pullman,3944,3,0.024999957531690598
Pullman,3944,3,0.024999957531690598
Pullman,3944,3,0.0200001522898674
Pullman,3944,3,0.024999957531690598
Pullman,3944,3,0.024999957531690598
Pullman,3944,3,0.04000007174909115
Pullman,3944,3,0.024999957531690598
Pullman,3944,3,0.019999919459223747
Pullman,3944,3,0.0350000336766243
