srcAirport,dstAirport,nHops,timeStartWork
Thule Airbase,Pullman,2,0.045000109821558
Thule Airbase,Pullman,2,0.024999957531690598
Thule Airbase,Pullman,2,0.029999995604157448
Thule Airbase,Pullman,2,0.08999998681247234
Thule Airbase,Pullman,2,0.049999915063381195
Thule Airbase,Pullman,2,0.029999995604157448
Thule Airbase,Pullman,2,0.029999995604157448
Thule Airbase,Pullman,2,0.11000013910233974
Thule Airbase,Pullman,2,0.0350000336766243
Thule Airbase,Pullman,2,0.04000007174909115
Thule Airbase,Pullman,2,0.0350000336766243
Thule Airbase,Pullman,2,0.0350000336766243
Thule Airbase,Pullman,2,0.0350000336766243
Thule Airbase,Pullman,2,0.029999995604157448
Thule Airbase,Pullman,2,0.029999995604157448
Thule Airbase,Pullman,2,0.0350000336766243
Thule Airbase,Pullman,2,0.0350000336766243
Thule Airbase,Pullman,2,0.024999957531690598
Thule Airbase,Pullman,2,0.034999800845980644
Thule Airbase,Pullman,2,0.029999995604157448
Thule Airbase,Pullman,2,0.029999995604157448
Thule Airbase,Pullman,2,0.029999995604157448
Thule Airbase,Pullman,2,0.029999995604157448
Thule Airbase,Pullman,2,0.034999800845980644
Thule Airbase,Pullman,2,0.029999995604157448
Thule Airbase,Pullman,2,0.029999995604157448
Thule Airbase,Pullman,2,0.029999995604157448
Thule Airbase,Pullman,2,0.029999995604157448
Thule Airbase,Pullman,2,0.029999995604157448
Thule Airbase,Pullman,2,0.0350000336766243
Thule Airbase,Pullman,2,0.0350000336766243
Thule Airbase,Pullman,2,0.0350000336766243
Thule Airbase,Pullman,2,0.0350000336766243
Thule Airbase,Pullman,2,0.029999995604157448
Thule Airbase,Pullman,2,0.029999995604157448
Thule Airbase,Pullman,2,0.014999881386756897
Thule Airbase,Pullman,2,0.014999881386756897
Thule Airbase,Pullman,2,0.01500011421740055
Thule Airbase,Pullman,2,0.014999881386756897
Thule Airbase,Pullman,2,0.019999919459223747
Thule Airbase,Pullman,2,0.02500019036233425
Thule Airbase,Pullman,2,0.01500011421740055
Thule Airbase,Pullman,2,0.01500011421740055
Thule Airbase,Pullman,2,0.01500011421740055
Thule Airbase,Pullman,2,0.014999881386756897
Thule Airbase,Pullman,2,0.01500011421740055
Thule Airbase,Pullman,2,0.014999881386756897
Thule Airbase,Pullman,2,0.01500011421740055
Thule Airbase,Pullman,2,0.014999881386756897
Thule Airbase,Pullman,2,0.014999881386756897
Thule Airbase,Pullman,2,0.0200001522898674
Thule Airbase,Pullman,2,0.019999919459223747
Thule Airbase,Pullman,2,0.01500011421740055
Thule Airbase,Pullman,2,0.0100000761449337
Thule Airbase,Pullman,2,0.019999919459223747
Thule Airbase,Pullman,2,0.024999957531690598
Thule Airbase,Pullman,2,0.0350000336766243
Thule Airbase,Pullman,2,0.04000007174909115
Thule Airbase,Pullman,2,0.039999838918447495
Thule Airbase,Pullman,2,0.04000007174909115
Thule Airbase,Pullman,2,0.04000007174909115
Thule Airbase,Pullman,2,0.034999800845980644
Thule Airbase,Pullman,2,0.04000007174909115
Thule Airbase,Pullman,2,0.0350000336766243
Thule Airbase,Pullman,2,0.0350000336766243
Thule Airbase,Pullman,2,0.039999838918447495
Thule Airbase,Pullman,2,0.04000007174909115
Thule Airbase,Pullman,2,0.0350000336766243
Thule Airbase,Pullman,2,0.039999838918447495
Thule Airbase,Pullman,2,0.0350000336766243
Thule Airbase,Pullman,2,0.029999995604157448
Thule Airbase,Pullman,2,0.0350000336766243
Thule Airbase,Pullman,2,0.0350000336766243
Thule Airbase,Pullman,2,0.0350000336766243
Thule Airbase,Pullman,2,0.0350000336766243
Thule Airbase,Pullman,2,0.0350000336766243
Thule Airbase,Pullman,2,0.04000007174909115
Thule Airbase,Pullman,2,0.0350000336766243
Thule Airbase,Pullman,2,0.034999800845980644
Thule Airbase,Pullman,2,0.06500002928078175
Thule Airbase,Pullman,2,0.029999995604157448
Thule Airbase,Pullman,2,0.029999995604157448
Thule Airbase,Pullman,2,0.05000014789402485
Thule Airbase,Pullman,2,0.029999995604157448
Thule Airbase,Pullman,2,0.0350000336766243
Thule Airbase,Pullman,2,0.045000109821558
Thule Airbase,Pullman,2,0.024999957531690598
Thule Airbase,Pullman,2,0.029999995604157448
Thule Airbase,Pullman,2,0.0350000336766243
Thule Airbase,Pullman,2,0.034999800845980644
Thule Airbase,Pullman,2,0.045000109821558
Thule Airbase,Pullman,2,0.029999995604157448
Thule Airbase,Pullman,2,0.029999995604157448
Thule Airbase,Pullman,2,0.045000109821558
Thule Airbase,Pullman,2,0.0300002284348011
Thule Airbase,Pullman,2,0.04000007174909115
Thule Airbase,Pullman,2,0.0350000336766243
Thule Airbase,Pullman,2,0.029999995604157448
Thule Airbase,Pullman,2,0.045000109821558
Thule Airbase,Pullman,2,0.029999995604157448
